{
    "fullimage": "girls/full/1140_pink_short_young",
    "fullmade": "",
    "fullmistress": "",
    "fullsecretary": "",
    "seed_ava": "content/pic/girls/face/1140_pink_short_young_sepia",
    "seed_ava_gray": "content/pic/girls/face/1140_pink_short_young_gray",
    "seed_ava_clear": "content/pic/girls/face/1140_pink_short_young",
    "seed_age": 0,
    "seed_boobs": 2,
    "seed_boobs_img": "boobs_C",
    "seed_pussy_img": "pussy_l2",
    "seed_psy_basic": "",
    "seed_world": ""
}