{
    "fullimage": "girls/full/1164_red_long_young",
    "fullmade": "",
    "fullmistress": "",
    "fullsecretary": "",
    "seed_ava": "content/pic/girls/face/1164_red_long_young_sepia",
    "seed_ava_gray": "content/pic/girls/face/1164_red_long_young_gray",
    "seed_ava_clear": "content/pic/girls/face/1164_red_long_young",
    "seed_age": 0,
    "seed_boobs": 3,
    "seed_boobs_img": "boobs_D",
    "seed_pussy_img": "pussy_g1",
    "seed_psy_basic": "",
    "seed_world": ""
}