{
    "fullimage": "girls/full/2021_black_short_milf",
    "fullmade": "",
    "fullmistress": "",
    "fullsecretary": "",
    "seed_ava": "content/pic/girls/face/2021_black_short_milf_sepia",
    "seed_ava_gray": "content/pic/girls/face/2021_black_short_milf_gray",
    "seed_ava_clear": "content/pic/girls/face/2021_black_short_milf",
    "seed_age": 2,
    "seed_boobs": 4,
    "seed_boobs_img": "boobs_EE",
    "seed_pussy_img": "pussy_g1",
    "seed_psy_basic": "",
    "seed_world": ""
}